<?xml version="1.0" encoding="utf-8"?>
<!-- Generator: Adobe Illustrator 20.1.0, SVG Export Plug-In . SVG Version: 6.00 Build 0)  -->
<svg version="1.1" id="Layer_1" xmlns="http://www.w3.org/2000/svg" xmlns:xlink="http://www.w3.org/1999/xlink" x="0px" y="0px"
	 viewBox="0 0 32 32" style="enable-background:new 0 0 32 32;" xml:space="preserve">
<style type="text/css">
	.st0{fill:#038803;}
</style>
<g>
	<path class="st0" d="M24.9,7.7c0.4-0.3,0.6-0.6,0.8-0.9c1.2-1.5,3.2-1.9,4.8-0.9c1.6,1.1,2,3.2,1,4.9c-0.7,1-1.4,1.9-2.1,2.9
		c-1.2,1.6-2.2,3.2-3.5,4.7c-0.8,1-1,2-1,3.2c0.1,2.3,0,4.6,0,6.8c0,2-1.4,3.4-3.5,3.4c-6,0-11.9,0-17.9,0c-2,0-3.5-1.5-3.5-3.5
		c0-8.2,0-16.4,0-24.6c0-2,1.2-3.3,3.2-3.5c0.3,0,0.6,0,1,0c3.7,0,7.3,0.1,11,0c1.8,0,3.3,0.4,4.5,1.8c1.1,1.2,2.4,2.2,3.7,3.3
		C24,5.9,24.6,6.6,24.9,7.7z M23.3,22c0,0-0.1,0-0.1-0.1c-0.9,1.2-1.8,2.5-2.7,3.7c-0.4,0.6-0.8,1.2-1.5,1.6
		c-1.2,0.6-2.4,1.2-3.6,1.7c-1.2,0.5-2.3-0.5-2.1-1.7c0.1-0.4,0.1-0.9,0.2-1.3c0.2-1.5,0.3-2.9,1.3-4.2c2.7-3.6,5.3-7.3,7.9-10.9
		c0.5-0.6,0.8-1.3,0.7-2.1c0-0.6-0.2-0.7-0.7-0.7c-1.3,0-2.7,0-4,0c-1.5,0-2.1-0.6-2.2-2.1c0-1.1,0-2.2,0-3.4c0-0.7-0.2-0.8-0.9-0.8
		c-4,0-8,0-12.1,0c-1.5,0-2.2,0.7-2.2,2.2c0,8.1,0,16.2,0,24.4c0,1.5,0.7,2.2,2.3,2.2c4,0,7.9,0,11.9,0c2,0,3.9,0,5.9,0
		c1.1,0,2.1-0.9,1.9-1.8c-0.1-0.4-0.1-0.8-0.1-1.2C23.3,25.6,23.3,23.8,23.3,22z M19.2,24.9c0.3,0,0.3-0.2,0.5-0.3
		c2.9-3.9,5.7-7.9,8.6-11.8c0.2-0.3,0.2-0.5-0.1-0.8c-0.8-0.6-1.6-1.1-2.4-1.7c-0.4-0.3-0.6-0.3-0.9,0.1c-2.8,3.9-5.7,7.9-8.6,11.8
		c-0.3,0.4-0.2,0.5,0.1,0.8c0.8,0.6,1.7,1.2,2.5,1.8C19,24.7,19.1,24.8,19.2,24.9z M28.5,6.8c-0.9,0-2,0.8-2.3,1.7
		c-0.1,0.3,0.1,0.3,0.2,0.5c0.6,0.5,1.2,0.9,1.9,1.4c1.2,0.9,1.4,0.9,2.1-0.5C31.1,8.4,30.1,6.8,28.5,6.8z M18,2.5
		c0,1.3,0,2.4,0,3.5c0,0.4,0.2,0.5,0.6,0.5c0.9,0,1.7,0,2.6,0c0.3,0,0.7,0.1,1.1-0.1C20.8,5.1,19.5,3.9,18,2.5z M14.9,27.1
		c0,0.3,0,0.6,0.4,0.4c0.9-0.4,1.8-0.9,2.6-1.3c0.2-0.1,0.3-0.3,0-0.4c-0.7-0.5-1.5-1.1-2.2-1.6c-0.3-0.2-0.4-0.1-0.5,0.2
		C15.1,25.2,15,26.2,14.9,27.1z"/>
	<path class="st0" d="M11,12.8c1.9,0,3.8,0,5.7,0c0.2,0,0.4,0,0.6,0c0.4,0.1,0.6,0.3,0.6,0.6c0,0.4-0.2,0.6-0.5,0.7
		c-0.2,0.1-0.5,0.1-0.8,0.1c-3.8,0-7.6,0-11.4,0c-0.3,0-0.5,0-0.8-0.1c-0.4-0.1-0.6-0.4-0.5-0.8c0-0.4,0.3-0.6,0.6-0.6
		c0.3,0,0.5,0,0.8,0C7.3,12.8,9.1,12.8,11,12.8z"/>
	<path class="st0" d="M9.6,17.2c1.6,0,3.1,0,4.7,0c0.5,0,0.9,0.1,1,0.7c0,0.5-0.3,0.8-1,0.8c-3.1,0-6.2,0-9.3,0c-0.1,0-0.2,0-0.3,0
		C4.3,18.5,4,18.3,4,17.8c0-0.5,0.4-0.6,0.8-0.6C6.4,17.2,8,17.2,9.6,17.2C9.6,17.2,9.6,17.2,9.6,17.2z"/>
	<path class="st0" d="M8.5,9.9c-1.2,0-2.4,0-3.6,0C4.5,9.9,4,9.8,4,9.3c0-0.6,0.4-0.8,0.9-0.8c2.5,0,5,0,7.5,0
		c0.5,0,0.8,0.2,0.8,0.7c0,0.5-0.4,0.7-0.9,0.7C11,9.9,9.8,9.9,8.5,9.9z"/>
	<path class="st0" d="M8.5,5.5c-1.2,0-2.4,0-3.6,0C4.5,5.5,4,5.4,4,4.8c0-0.6,0.4-0.7,0.9-0.7c2.5,0,4.9,0,7.4,0
		c0.5,0,0.9,0.2,0.9,0.7c0,0.6-0.4,0.7-0.9,0.7C11,5.5,9.8,5.5,8.5,5.5z"/>
	<path class="st0" d="M8.2,22.9c-1.1,0-2.2,0-3.4,0c-0.5,0-0.9-0.1-0.9-0.7c0-0.6,0.4-0.7,0.9-0.7c2.3,0,4.6,0,6.9,0
		c0.5,0,0.9,0.2,0.8,0.8c0,0.6-0.4,0.7-0.9,0.7C10.5,22.9,9.4,22.9,8.2,22.9C8.2,22.9,8.2,22.9,8.2,22.9z"/>
	<path class="st0" d="M8.3,25.8c1.1,0,2.2,0,3.3,0c0.5,0,1,0.1,1,0.7c0,0.6-0.4,0.7-0.9,0.7c-2.2,0-4.4,0-6.6,0c-0.1,0-0.3,0-0.4,0
		C4.2,27.2,4,26.9,4,26.5c0-0.4,0.3-0.6,0.8-0.6C5.9,25.8,7.1,25.8,8.3,25.8C8.3,25.8,8.3,25.8,8.3,25.8z"/>
</g>
</svg>
