<?xml version="1.0" encoding="utf-8"?>
<!-- Generator: Adobe Illustrator 20.1.0, SVG Export Plug-In . SVG Version: 6.00 Build 0)  -->
<svg version="1.1" id="Layer_1" xmlns="http://www.w3.org/2000/svg" xmlns:xlink="http://www.w3.org/1999/xlink" x="0px" y="0px"
	 viewBox="0 0 32 32" style="enable-background:new 0 0 32 32;" xml:space="preserve">
<style type="text/css">
	.st0{fill:#038803;}
</style>
<g>
	<path class="st0" d="M25.8,32c-0.4-0.1-0.8-0.3-1-0.6c-0.3-0.3-0.6-0.5-0.9-0.6c-0.3-0.1-0.6-0.1-0.8,0c-0.4,0.2-0.7,0.5-1,0.8
		c-0.5,0.5-1.1,0.6-1.7,0.2c-0.2-0.1-0.5-0.3-0.7-0.4c-0.3-0.2-0.7-0.4-1-0.6c-0.6-0.3-0.9-1-0.6-1.7c0.2-0.5,0.2-1.1-0.1-1.6
		c-0.3-0.5-0.8-0.8-1.4-0.9c-0.7,0-1.1-0.4-1.2-1.1c-0.2-1.1-0.2-2.2,0-3.3c0-0.2,0.1-0.3,0.2-0.5c0.2-0.4,0.5-0.6,1-0.6
		c0.9,0,1.6-0.6,1.7-1.4c0.1-0.3,0-0.7-0.1-1c-0.3-0.7,0-1.4,0.6-1.7c0.6-0.3,1.2-0.7,1.8-1c0.6-0.3,1.2-0.2,1.7,0.2
		c0.3,0.2,0.5,0.5,0.8,0.6c0.4,0.2,0.8,0.3,1.2,0c0.3-0.2,0.6-0.4,0.8-0.6c0.5-0.5,1.1-0.5,1.7-0.2c0.6,0.3,1.2,0.7,1.8,1
		c0.6,0.4,0.9,1,0.6,1.7c-0.2,0.6-0.2,1.2,0.2,1.7c0.3,0.5,0.8,0.7,1.4,0.7c0.6,0,1,0.3,1.2,0.9c0.1,0.3,0.1,0.7,0.2,1
		c0,0,0,0.1,0,0.1c0,0.4,0,0.8,0,1.1c0,0.1,0,0.3-0.1,0.4c-0.1,0.3-0.1,0.7-0.2,1c-0.2,0.4-0.5,0.7-0.9,0.7c-0.2,0-0.3,0-0.5,0
		c-1,0.2-1.7,1.3-1.3,2.4c0.3,0.7,0,1.4-0.6,1.7c-0.3,0.2-0.6,0.3-0.9,0.5c-0.5,0.3-1,0.6-1.5,0.7C26,32,25.9,32,25.8,32z
		 M27.4,18.5C27.4,18.5,27.4,18.5,27.4,18.5c-0.5-0.3-0.9-0.5-1.3-0.8c-0.1-0.1-0.2,0-0.2,0c-0.3,0.2-0.6,0.5-0.9,0.6
		c-0.9,0.5-1.8,0.6-2.8,0.1c-0.4-0.2-0.7-0.4-1-0.7c-0.1-0.1-0.1-0.1-0.2,0c-0.4,0.2-0.8,0.5-1.2,0.7c-0.1,0.1-0.1,0.1-0.1,0.2
		c0.1,0.4,0.2,0.8,0.1,1.2c-0.2,1.5-1.3,2.7-2.8,3c-0.1,0-0.2,0.1-0.2,0.2c-0.1,0.6-0.1,1.2,0,1.8c0,0.1,0.1,0.2,0.2,0.2
		c0.7,0.1,1.2,0.4,1.7,0.9c0.9,0.9,1.3,2,0.9,3.3c0,0.1,0,0.2,0.1,0.3c0.4,0.2,0.7,0.4,1.1,0.6c0.1,0.1,0.2,0.1,0.3,0
		c0.3-0.3,0.7-0.6,1.2-0.8c0.8-0.4,1.6-0.4,2.4,0c0.4,0.2,0.8,0.5,1.2,0.8c0.1,0.1,0.2,0.1,0.3,0c0.4-0.2,0.8-0.4,1.2-0.7
		c0.1-0.1,0.1-0.1,0.1-0.2c-0.1-0.4-0.2-0.8-0.1-1.3c0.2-1.5,1.3-2.7,2.8-3c0.1,0,0.2-0.1,0.2-0.2c0.1-0.6,0.1-1.2,0-1.8
		c0-0.1-0.1-0.1-0.2-0.2c-0.8-0.2-1.5-0.6-2.1-1.2c-0.6-0.8-0.9-1.6-0.7-2.6C27.3,18.9,27.4,18.7,27.4,18.5z"/>
	<path class="st0" d="M23.5,27.1c-1.7,0-3.2-1.4-3.2-3.2c0-1.9,1.6-3.2,3.2-3.2c1.7,0,3.2,1.4,3.2,3.2
		C26.6,25.7,25.2,27.1,23.5,27.1z M22,24c0,0.8,0.7,1.5,1.5,1.5c0.8,0,1.5-0.7,1.5-1.5c0-0.8-0.7-1.5-1.5-1.5
		C22.6,22.5,22,23.1,22,24z"/>
	<g>
		<g>
			<rect x="3.9" y="6.4" class="st0" width="8.5" height="1.5"/>
		</g>
		<g>
			<rect x="3.9" y="11.2" class="st0" width="14.8" height="1.5"/>
		</g>
		<path class="st0" d="M13.9,27.5H1.5V1.5h15L23.3,8v6.3c0.5,0,1,0,1.5,0.1v-7L17.2,0H0v29h14.7C14.4,28.5,14.1,28,13.9,27.5z"/>
		<path class="st0" d="M14.4,19.9H3.9v1.5h9.9C13.9,20.9,14.1,20.4,14.4,19.9z"/>
		<path class="st0" d="M18.5,15.7v-0.2H3.9v1.5h12.5C17,16.5,17.7,16.1,18.5,15.7z"/>
	</g>
</g>
</svg>
