<?xml version="1.0" encoding="utf-8"?>
<!-- Generator: Adobe Illustrator 20.1.0, SVG Export Plug-In . SVG Version: 6.00 Build 0)  -->
<svg version="1.1" id="Layer_1" xmlns="http://www.w3.org/2000/svg" xmlns:xlink="http://www.w3.org/1999/xlink" x="0px" y="0px"
	 width="32px" height="32px" viewBox="0 0 32 32" style="enable-background:new 0 0 32 32;" xml:space="preserve">
<style type="text/css">
	.st0{fill:#009500;}
</style>
<g>
	<g>
		<circle class="st0" cx="16.9" cy="8.7" r="2.7"/>
		<path class="st0" d="M16.9,16.7c1.3-1,5.5-4.4,5.5-8.1c0-3-2.5-5.5-5.5-5.5s-5.5,2.5-5.5,5.5C11.4,12.4,15.6,15.8,16.9,16.7z
			 M12.8,8.7c0-2.3,1.8-4.1,4.1-4.1S21,6.4,21,8.7s-1.8,4.1-4.1,4.1C14.6,12.8,12.8,10.9,12.8,8.7z"/>
	</g>
	<g>
		<path class="st0" d="M4.3,12.4h6.5c-0.1-0.4-0.1-0.9-0.1-1.3c0-0.5,0-0.9,0.1-1.3H4.3C3.6,9.7,3,10.3,3,11
			C3,11.8,3.6,12.4,4.3,12.4z"/>
		<path class="st0" d="M8,20.9h16c2.8,0,5-2.3,5-5v-1.1c0-2.8-2.3-5-5-5h-0.7c0.1,0.4,0.1,0.9,0.1,1.3c0,0.5,0,0.9-0.1,1.3H24
			c1.3,0,2.4,1.1,2.4,2.4v1.1c0,1.3-1.1,2.4-2.4,2.4H8c-2.8,0-5,2.3-5,5s2.3,5,5,5h19.6c0.7,0,1.3-0.6,1.3-1.3
			c0-0.7-0.6-1.3-1.3-1.3H8c-1.3,0-2.4-1.1-2.4-2.4S6.7,20.9,8,20.9z"/>
	</g>
</g>
</svg>
