<?xml version="1.0" encoding="utf-8"?>
<!-- Generator: Adobe Illustrator 20.1.0, SVG Export Plug-In . SVG Version: 6.00 Build 0)  -->
<svg version="1.1" id="Layer_1" xmlns="http://www.w3.org/2000/svg" xmlns:xlink="http://www.w3.org/1999/xlink" x="0px" y="0px"
	 width="40px" height="40px" viewBox="0 0 40 40" style="enable-background:new 0 0 40 40;" xml:space="preserve">
<style type="text/css">
	.st0{fill:#038803;}
</style>
<g>
	<path class="st0" d="M20.8,34.3c-5.8,0-11.5,0-17.3-0.9c-0.9-0.1-1.1-0.5-1-1.4C2.6,30.9,3,30,4.1,29.5c2.7-1.2,3.3-3.5,3.5-6.2
		c0.2-2.8,0.2-5.5,0.2-8.3c0-5.7,3.5-10.6,8.9-12.4c0.5-0.2,0.9-0.5,1.1-1C18.2,0.5,19.1,0,20.1,0c1.1,0,1.9,0.7,2.2,1.9
		c0.1,0.5,0.4,0.6,0.8,0.7c6.1,1.8,9.2,7.3,9.2,12.9c0,3.2-0.2,6.5,0.4,9.7c0.3,1.8,1,3.3,2.8,4.1c1.3,0.6,1.9,1.6,2,3
		c0.1,0.7-0.1,1.1-0.9,1.2c-2.9,0.5-5.8,0.8-8.7,0.9C25.6,34.4,23.2,34.3,20.8,34.3z"/>
	<path class="st0" d="M17.8,35.3c1.6,0.2,3.5,0.2,5.4,0.1c0.9,0,1,0.3,0.9,1.1c-0.4,2-2,3.5-4.1,3.5c-1.9,0.1-3.7-1.4-4.2-3.3
		c-0.3-1.2-0.1-1.4,1.1-1.4C17.1,35.3,17.3,35.3,17.8,35.3z"/>
</g>
</svg>
